{
    "addons": {
      "{4098a087-06d2-4b95-8f98-3f877c88eee2}": {
        "updates": [
          {
            "version": "2.0.0",
            "update_link": "https://cboy343.gitlab.io/echoedlinks/extensions/echoed_links-2.0.0-fx.xpi",
            "update_hash": "sha256:20673241789972d8f49e8acb05aeb24aa1e5e56213740ab75631794d2a98c11b"
          }, 
          {
            "version": "3.0.0",
            "update_link": "https://cboy343.gitlab.io/echoedlinks/extensions/echoed_links-3.0.0-fx.xpi",
            "update_hash": "sha256:2fdc3b1da9299a372f5a71aa17678767edd7e7c03b21338c3c59a71dcea55d7d"
          }
        ]
      }
    }
  }